{
        type: '',
        action: '!nativeeditor_status',
        table: [
                 {
                        name: 'grid_test1',
                        connect_field: 'id',
                        key: {name: 'pKey', value: 'gr_id'},
                        param: [
                                {name: 'data1', value: 'c0'},
                                {name: 'data2', value: 'c1'},
                                {name: 'data3', value: 'c2'}
                               ],
                        where: ''
                 },{
                        name:'grid_test2',
                        connect_field: 'id_table2',
                        key: {name: 'pKey', value: 'gr_id'},
                        param: [
                                {name: 'data4', value: 'c3'},
                                {name: 'data5', value: 'c4'},
                                {name: 'data6', value: 'c5'},
                                {name: 'data7', value: 'c6'},
                                {name: 'data8', value: 'c7'}
                               ],
                        where: ''
                    }
                ]
}